Variable	Coefficient	Odds_Ratio	Std_Err	z-value	p-value
Intercept	-8.404696366914143	0.00022381374066136295	0.7166360722578806	-11.727983968813843	0.0	
preg	0.12318229835243943	1.1310905981065347	0.03207755509149099	3.840139873537782	1.229642306017631E-4	
plas	0.03516371460685666	1.0357892687524441	0.0037087080212793713	9.481392011746031	0.0	
pres	-0.01329554690430615	0.9867924484655449	0.005233610841523078	-2.5404156531510274	0.01107207964616741	
skin	6.189643648757384E-4	1.000619155962847	0.006899376434046241	0.08971308795695579	0.9285152151977187	
insu	-0.001191698984162232	0.9988090108070917	9.012256317523043E-4	-1.3223092444065796	0.18606519569510405	
mass	0.0897009700309466	1.0938471417180817	0.015087628013896504	5.945332821589136	2.758957062809486E-9	
pedi	0.9451797406211296	2.5732758592250775	0.299147501580796	3.1595775850591497	0.0015799802724032475	
age	0.01486900474446945	1.0149800983295938	0.009334794393877641	1.592858301648454	0.11119198250043816	
